<?xml version="1.0" encoding="UTF-8"?>
<!-- Created with Inkscape (http://www.inkscape.org/) -->
<svg width="119.13mm" height="106.41mm" version="1.1" viewBox="0 0 119.1259 106.41298" xmlns="http://www.w3.org/2000/svg" xmlns:cc="http://creativecommons.org/ns#" xmlns:dc="http://purl.org/dc/elements/1.1/" xmlns:rdf="http://www.w3.org/1999/02/22-rdf-syntax-ns#" xmlns:xlink="http://www.w3.org/1999/xlink">
 <defs>
  <marker id="marker9627" overflow="visible" orient="auto">
   <path transform="matrix(.4 0 0 .4 2.96 .4)" d="m-2.5-1c0 2.76-2.24 5-5 5s-5-2.24-5-5 2.24-5 5-5 5 2.24 5 5z" fill="#f9b000" fill-rule="evenodd" stroke="#f9b000" stroke-width="1pt"/>
  </marker>
  <marker id="marker9569" overflow="visible" orient="auto">
   <path transform="matrix(.4 0 0 .4 2.96 .4)" d="m-2.5-1c0 2.76-2.24 5-5 5s-5-2.24-5-5 2.24-5 5-5 5 2.24 5 5z" fill="#f9b000" fill-rule="evenodd" stroke="#f9b000" stroke-width="1pt"/>
  </marker>
  <marker id="DotM" overflow="visible" orient="auto">
   <path transform="matrix(.4 0 0 .4 2.96 .4)" d="m-2.5-1c0 2.76-2.24 5-5 5s-5-2.24-5-5 2.24-5 5-5 5 2.24 5 5z" fill="#f9b000" fill-rule="evenodd" stroke="#f9b000" stroke-width="1pt"/>
  </marker>
  <clipPath id="clipPath4525">
   <path d="m1.0729e-5 0h720v405.12h-720z" clip-rule="evenodd"/>
  </clipPath>
  <clipPath id="clipPath4537">
   <path d="m1.0729e-5 0h720v405.12h-720z" clip-rule="evenodd"/>
  </clipPath>
  <clipPath id="clipPath4573">
   <path d="m1.0729e-5 0h720v405.12h-720z" clip-rule="evenodd"/>
  </clipPath>
  <clipPath id="clipPath6290">
   <path d="m1.0729e-5 0h720v405.12h-720z" clip-rule="evenodd"/>
  </clipPath>
  <clipPath id="clipPath6302">
   <path d="m1.0729e-5 0h720v405.12h-720z" clip-rule="evenodd"/>
  </clipPath>
  <clipPath id="clipPath6338">
   <path d="m1.0729e-5 0h720v405.12h-720z" clip-rule="evenodd"/>
  </clipPath>
 </defs>
 <metadata>
  <rdf:RDF>
   <cc:Work rdf:about="">
    <dc:format>image/svg+xml</dc:format>
    <dc:type rdf:resource="http://purl.org/dc/dcmitype/StillImage"/>
    <dc:title/>
   </cc:Work>
  </rdf:RDF>
 </metadata>
 <g transform="translate(49.412 -86.877)">
  <g transform="matrix(0 .99997 -.99997 0 44.132 291.7)">
   <g transform="matrix(0 -.35279 -.35279 0 -204.71 359.85)">
    <g clip-path="url(#clipPath4525)">
     <text transform="matrix(1,0,0,-1,158.11,410.45)" fill="#000000" font-family="Arial" font-size="6.96px">
      <tspan x="0 3.8419199 5.7768002 9.6048002" y="0">7,28</tspan>
     </text>
    </g>
   </g>
   <g transform="matrix(0 -.35279 -.35279 0 -204.71 359.85)">
    <g clip-path="url(#clipPath4537)">
     <text transform="matrix(1,0,0,-1,716.47,410.45)" fill="#000000" font-family="Arial" font-size="6.96px">
      <tspan x="0 3.8419199 7.6838398 9.6187201 13.44672" y="0">12,42</tspan>
     </text>
    </g>
   </g>
   <g transform="matrix(0 -.35279 -.35279 0 -204.71 359.85)">
    <g clip-path="url(#clipPath4573)">
     <text transform="matrix(1,0,0,-1,221.88,410.45)" fill="#000000" font-family="Arial" font-size="6.96px">
      <tspan x="0 3.8419199 5.7768002 9.6048002" y="0">5,03</tspan>
     </text>
    </g>
   </g>
   <g transform="matrix(0 -.35279 -.35279 0 -65.339 228.09)">
    <g clip-path="url(#clipPath6290)">
     <text transform="matrix(1,0,0,-1,158.11,410.45)" fill="#000000" font-family="Arial" font-size="6.96px">
      <tspan x="0 3.8419199 5.7768002 9.6048002" y="0">7,28</tspan>
     </text>
    </g>
   </g>
   <g transform="matrix(0 -.35279 -.35279 0 -65.339 228.09)">
    <g clip-path="url(#clipPath6302)">
     <text transform="matrix(1,0,0,-1,716.47,410.45)" fill="#000000" font-family="Arial" font-size="6.96px">
      <tspan x="0 3.8419199 7.6838398 9.6187201 13.44672" y="0">12,42</tspan>
     </text>
    </g>
   </g>
   <g transform="matrix(0 -.35279 -.35279 0 -65.339 228.09)">
    <g clip-path="url(#clipPath6338)">
     <text transform="matrix(1,0,0,-1,221.88,410.45)" fill="#000000" font-family="Arial" font-size="6.96px">
      <tspan x="0 3.8419199 5.7768002 9.6048002" y="0">5,03</tspan>
     </text>
    </g>
   </g>
   <path d="m-100.03 58.566-49.179-30.47-1.3364 63.879m1.3364-63.879 47.041-49.179m-101.03 73.501 53.99-24.322-26.995-51.317" fill="none" marker-end="url(#marker9627)" marker-mid="url(#DotM)" marker-start="url(#marker9569)" stroke="#f9b000" stroke-miterlimit="3" stroke-width=".70558"/>
   <g fill="#000000" font-family="sans-serif" font-size="10.584px" letter-spacing="0px" stroke-width=".26459" word-spacing="0px">
    <text transform="rotate(-90)" x="-27.458359" y="-188.82915" style="line-height:6.61477137px" xml:space="preserve"><tspan x="-27.458359" y="-188.82915" font-family="Arial" stroke-width=".26459">LESS</tspan></text>
    <text transform="rotate(-90)" x="-8.3700228" y="-138.74586" style="line-height:6.61477137px" xml:space="preserve"><tspan x="-8.3700228" y="-138.74586" stroke-width=".26459">START</tspan></text>
    <text transform="rotate(-90)" x="-35.018101" y="-110.20786" style="line-height:6.61477137px" xml:space="preserve"><tspan x="-35.018101" y="-110.20786" stroke-width=".26459">STOP</tspan></text>
    <text transform="rotate(-90)" x="-88.314255" y="-124.00439" style="line-height:6.61477137px" xml:space="preserve"><tspan x="-88.314255" y="-124.00439" stroke-width=".26459">KEEP</tspan></text>
    <text transform="rotate(-90)" x="-90.204193" y="-182.40337" style="line-height:6.61477137px" xml:space="preserve"><tspan x="-90.204193" y="-182.40337" stroke-width=".26459">MORE</tspan></text>
   </g>
  </g>
 </g>
</svg>
